{
  "name": "Experiment",
  "fields": [
    {
      "fieldName": "id",
      "fieldType": "Long"
    },
    {
      "fieldName": "name",
      "fieldType": "String",
      "fieldValidateRules": ["required"]
    },
    {
      "fieldName": "description",
      "fieldType": "String"
    },
    {
      "fieldName": "registerType",
      "fieldType": "RegisterType",
      "fieldValues": "NO_REGISTER,TOKEN,SELF_REGISTER",
      "fieldValidateRules": ["required"]
    }
  ],
  "relationships": [
    {
      "relationshipType": "one-to-many",
      "otherEntityName": "experimentMetaData",
      "otherEntityRelationshipName": "experiment",
      "relationshipName": "experimentMetaData"
    },
    {
      "relationshipType": "many-to-many",
      "otherEntityName": "user",
      "otherEntityRelationshipName": "experiment",
      "relationshipName": "members",
      "otherEntityField": "login",
      "ownerSide": true
    },
    {
      "relationshipType": "many-to-many",
      "otherEntityName": "user",
      "otherEntityRelationshipName": "experiment",
      "relationshipName": "viewers",
      "otherEntityField": "login",
      "ownerSide": true
    }
  ],
  "entityTableName": "experiment",
  "dto": "no",
  "pagination": "pagination",
  "service": "serviceClass",
  "jpaMetamodelFiltering": false,
  "fluentMethods": true,
  "readOnly": false,
  "embedded": false,
  "applications": "*",
  "changelogDate": "20210614213314"
}
